<svg xmlns="http://www.w3.org/2000/svg" width="16" height="16" fill="none" viewBox="0 0 16 16">
    <path fill="#959595" d="M6 7.333H4.667v1.334H6V7.334zm2.667 0H7.333v1.334h1.334V7.334zm2.666 0H10v1.334h1.333V7.334zm1.334-4.666H12V1.334h-1.333v1.333H5.333V1.334H4v1.333h-.667c-.74 0-1.326.6-1.326 1.333L2 13.334c0 .733.593 1.333 1.333 1.333h9.334c.733 0 1.333-.6 1.333-1.333V4c0-.733-.6-1.333-1.333-1.333zm0 10.666H3.333V6h9.334v7.334z"/>
</svg>
