<svg xmlns="http://www.w3.org/2000/svg" width="16" height="16" fill="none" viewBox="0 0 16 16">
    <path fill="#959595" d="M4 1.333c-.354 0-.693.141-.943.391s-.391.59-.391.943v10.666c0 .354.14.693.39.943s.59.39.943.39h8c.354 0 .693-.14.943-.39s.39-.589.39-.942V2.667c0-.354-.14-.693-.39-.943s-.589-.39-.943-.39H4zm4 2c.883 0 1.731.352 2.356.977.626.625.977 1.473.977 2.357 0 .884-.351 1.732-.977 2.357C9.731 9.649 8.883 10 8 10c-.884 0-1.732-.351-2.357-.976-.625-.625-.976-1.473-.976-2.357 0-.884.351-1.732.976-2.357.625-.625 1.473-.976 2.357-.976zM8 4c-.274.413-.5.86-.64 1.333h1.28C8.5 4.86 8.28 4.413 8 4zm-.867.147c-.614.207-1.134.633-1.44 1.186h.973c.12-.413.267-.813.467-1.186zm1.726 0c.2.373.354.773.474 1.186h.973c-.307-.553-.833-.973-1.447-1.186zM5.42 6c-.053.213-.086.434-.086.667 0 .233.033.453.086.667h1.127c-.027-.22-.047-.44-.047-.667 0-.227.02-.447.047-.667H5.419zm1.8 0c-.033.213-.053.44-.053.667 0 .227.02.447.053.667h1.56c.027-.22.054-.44.054-.667 0-.227-.027-.454-.054-.667H7.22zm2.234 0c.026.22.046.44.046.667 0 .227-.02.447-.046.667h1.126c.054-.214.087-.434.087-.667 0-.233-.033-.454-.087-.667H9.453zm-3.76 2c.306.553.826.973 1.44 1.187-.2-.373-.347-.767-.467-1.187h-.973zm1.666 0c.14.48.367.92.64 1.334.28-.414.5-.854.64-1.334H7.36zm1.974 0c-.12.42-.274.813-.474 1.187C9.473 8.974 10 8.554 10.306 8h-.973zm-4.667 3.334h6.667v1.333H4.666v-1.333z"/>
</svg>
