<svg xmlns="http://www.w3.org/2000/svg" width="16" height="16" fill="none" viewBox="0 0 16 16">
    <path fill="#959595" d="M8 2.667c.707 0 1.385.28 1.885.78s.781 1.179.781 1.886c0 .707-.28 1.386-.781 1.886-.5.5-1.178.78-1.886.78-.707 0-1.385-.28-1.885-.78s-.781-1.179-.781-1.886c0-.707.28-1.385.78-1.885S7.294 2.667 8 2.667zm0 6.666c2.946 0 5.333 1.194 5.333 2.667v1.333H2.666V12c0-1.473 2.387-2.667 5.333-2.667z"/>
</svg>
