<svg xmlns="http://www.w3.org/2000/svg" width="16" height="16" fill="none" viewBox="0 0 16 16">
    <path fill="#959595" d="M8 7.333c-.733 0-1.333.6-1.333 1.334 0 .733.6 1.333 1.334 1.333.733 0 1.333-.6 1.333-1.333 0-.734-.6-1.334-1.333-1.334zm4 1.334c0-2.207-1.793-4-4-4-2.206 0-4 1.793-4 4 0 1.48.807 2.766 2 3.46l.667-1.16c-.793-.467-1.333-1.314-1.333-2.3C5.334 7.193 6.527 6 8.001 6c1.473 0 2.666 1.193 2.666 2.667 0 .986-.54 1.833-1.333 2.3l.667 1.16c1.193-.694 2-1.98 2-3.46zM8 2C4.32 2 1.335 4.987 1.335 8.667c0 2.466 1.34 4.613 3.327 5.766l.666-1.153c-1.586-.927-2.66-2.64-2.66-4.613 0-2.947 2.387-5.334 5.334-5.334 2.946 0 5.333 2.387 5.333 5.334 0 1.973-1.073 3.686-2.667 4.613l.667 1.153c1.993-1.153 3.333-3.3 3.333-5.766C14.667 4.987 11.681 2 8.001 2z"/>
</svg>
